{
  "yearOfPlan": "2021",
  "type": "pmo",
  "minAge": "18",
  "maxAge": "40",
  "intervalYear": "3",
  "sumAll": "20862",
  "values": [
    {
      "name": "korp4",
      "divisionPlan": {
        "jan": "0",
        "feb": "0",
        "mar": "1103",
        "apr": "1103",
        "may": "1348",
        "jun": "1147",
        "jul": "0",
        "aug": "0",
        "sep": "1103",
        "oct": "1059",
        "nov": "993",
        "dec": "0"
      },
      "sum": "7856"
    },
    {
      "name": "korp1",
      "divisionPlan": {
        "jan": "0",
        "feb": "0",
        "mar": "403",
        "apr": "403",
        "may": "448",
        "jun": "448",
        "jul": "537",
        "aug": "537",
        "sep": "671",
        "oct": "403",
        "nov": "671",
        "dec": "313"
      },
      "sum": "4834"
    },
    {
      "name": "korp2",
      "divisionPlan": {
        "jan": "0",
        "feb": "0",
        "mar": "403",
        "apr": "403",
        "may": "448",
        "jun": "448",
        "jul": "536",
        "aug": "536",
        "sep": "771",
        "oct": "403",
        "nov": "881",
        "dec": "355"
      },
      "sum": "5184"
    },
    {
      "name": "korp3",
      "divisionPlan": {
        "jan": "0",
        "feb": "0",
        "mar": "102",
        "apr": "102",
        "may": "346",
        "jun": "346",
        "jul": "536",
        "aug": "536",
        "sep": "270",
        "oct": "146",
        "nov": "270",
        "dec": "334"
      },
      "sum": "2988"
    }
  ]
}
